<svg xmlns="http://www.w3.org/2000/svg" width="22" height="22">
  <style>
    path {
      fill: white;
    }
  </style>
  <path d="M1.263 2.744C2.41 3.832 2.845 4.932 4.118 5.08l.036.007c-.588.606-1.09 1.402-1.443 2.423-.38 1.096-.488 2.285-.614 3.659-.19 2.046-.401 4.364-1.556 7.269-2.486 6.258-1.12 11.63.332 17.317.664 2.604 1.348 5.297 1.642 8.107a.857.857 0 00.633.744.86.86 0 00.922-.323c.227-.313.524-.797.86-1.424.84 3.323 1.355 6.13 1.783 8.697a.866.866 0 001.517.41c2.88-3.463 3.763-8.636 2.184-12.674.459-2.433 1.402-4.45 2.398-6.583.536-1.15 1.08-2.318 1.55-3.566.228-.084.569-.314.79-.441l1.707-.981-.256 1.052a.864.864 0 001.678.408l.68-2.858 1.285-2.95a.863.863 0 10-1.581-.687l-1.152 2.669-2.383 1.372a18.97 18.97 0 00.508-2.981c.432-4.86-.718-9.074-3.066-11.266-.163-.157-.208-.281-.247-.26.095-.12.249-.26.358-.374 2.283-1.693 6.047-.147 8.319.75.589.232.876-.337.316-.67-1.95-1.153-5.948-4.196-8.188-6.193-.313-.275-.527-.607-.89-.913C9.825.555 4.072 3.057 1.355 2.569c-.102-.018-.166.103-.092.175m10.98 5.899c-.06 1.242-.603 1.8-1 2.208-.217.224-.426.436-.524.738-.236.714.008 1.51.66 2.143 1.974 1.84 2.925 5.527 2.538 9.86-.291 3.288-1.448 5.763-2.671 8.385-1.031 2.207-2.096 4.489-2.577 7.259a.853.853 0 00.056.48c1.02 2.434 1.135 6.197-.672 9.46a96.586 96.586 0 00-1.97-8.711c1.964-4.488 4.203-11.75 2.919-17.668-.325-1.497-1.304-3.276-2.387-4.207-.208-.18-.402-.237-.495-.167-.084.06-.151.238-.062.444.55 1.266.879 2.599 1.226 4.276 1.125 5.443-.956 12.49-2.835 16.782l-.116.259-.457.982c-.356-2.014-.85-3.95-1.33-5.84-1.38-5.406-2.68-10.515-.401-16.254 1.247-3.137 1.483-5.692 1.672-7.746.116-1.263.216-2.355.526-3.252.905-2.605 3.062-3.178 4.744-2.852 1.632.316 3.24 1.593 3.156 3.42zm-2.868.62a1.177 1.177 0 10.736-2.236 1.178 1.178 0 10-.736 2.237z"/>
</svg>
